{
    "module": "sluice.geocode.address_parser",
    "method": "parse_address",
    "tests": {
        "test1": {
            "args": ["123 Fake St. Springfield, NY 12345"],
            "expected": {
                "string": "123 Fake St. Springfield, NY 12345",
                "address": "123 Fake St",
                "number": "123",
                "street": "Fake St",
                "street_name": "Fake",
                "city": "Springfield",
                "state": "NY",
                "zipcode": "12345"
            }
        },
        "test2": {
            "args": ["1026 e orange grove ave pasadena, ca 91106"],
            "expected": {
                "string": "1026 e orange grove ave pasadena, ca 91106",
                "address": "1026 E Orange Grove Ave",
                "number": "1026",
                "street": "E Orange Grove Ave",
                "street_name": "Orange Grove",
                "city": "Pasadena",
                "state": "CA",
                "zipcode": "91106"
            }
        },
        "test3": {
            "args": ["1219 S Alta Vista Ave. #113 Monrovia, CA 91016"],
            "expected": {
                "string": "1219 S Alta Vista Ave. #113 Monrovia, CA 91016",
                "address": "1219 S Alta Vista Ave # 113",
                "number": "1219",
                "street": "S Alta Vista Ave",
                "street_name": "Alta Vista",
                "unit": "# 113",
                "city": "Monrovia",
                "state": "CA",
                "zipcode": "91016"
            }
        },
        "test4": {
            "args": ["9875 S 24th St. NW\nSuite 100\nSeattle, WA 98765-1234"],
            "expected": {
                "string": "9875 S 24th St. NW\nSuite 100\nSeattle, WA 98765-1234",
                "address": "9875 S 24th St NW Suite 100",
                "number": "9875",
                "street": "S 24th St NW",
                "street_name": "24th",
                "unit": "Suite 100",
                "city": "Seattle",
                "state": "WA",
                "zipcode": "98765",
                "plus4": "1234"
            }
        }
    }
}
