{
    "module": "sluice.sentiment.afinn",
	"class": "AFINN",
    "method": "classify",
    "tests": {
        "test1": {
            "args": [".@tacobell doing crazy stuff with @snapchat right now- just saying"],
            "expected": "Negative"
        },
        "test2": {
            "args": ["I left when young but it's in my bones. Detroit Tigers caps 4 sale in the airport took me back to Tiger Stadium circa 1971. My first game."],
            "expected": "Neutral"
        },
        "test3": {
            "args": ["I earned 367785 points (#125603) and 515 results (#24236) by donating over 97 days (#212340) of cpu time to WCG http://wcgrid.org "],
            "expected": "Neutral"
        },
        "test4": {
            "args": ["Here's a bit where I wonder if @comcast just kept Apple out of USA TV market: https://plus.google.com/+Scobleizer/posts/h9S6JXmJHHU … Major push forward for my TV."],
            "expected": "Neutral"
        },
        "test5": {
            "args": ["Just being in this city brings back a wave of memories."],
            "expected": "Neutral"
        },
        "test6": {
            "args": ["Hahaha, @ashleymadison is based in Canada. I pick on Canada for all the \"real\" stuff, so I'll leave this one alone."],
            "expected": "Neutral"
        },
        "test7": {
            "args": ["Great trip. Thanks for the warm welcome, Dallas and Fort Worth- and special thanks to @dfwworld for putting it all together! <3"],
            "expected": "Positive"
        },
        "test8": {
            "args": ["Just completed a 4.15 mi run with @RunKeeper. Check it out! http://rnkpr.com/a2vq4ph  #RunKeeper"],
            "expected": "Neutral"
        },
        "test9": {
            "args": ["@BRoodman Cinder blocks and 2x8's win every time."],
            "expected": "Neutral"
        },
        "test10": {
            "args": ["How have google not sent @DanaDelany Glass yet so she can troll @jeriryan on set?"],
            "expected": "Neutral"
        },
        "test11": {
            "args": ["I'm doing some research on the size of the infidelity market for a friend of mine (he's a politician). Anybody have stats? cc:@ashleymadison"],
            "expected": "Neutral"
        },
        "test12": {
            "args": ["Are leaning bookshelves going to go out of style? I'm in market now."],
            "expected": "Neutral"
        },
        "test13": {
            "args": ["Helpful article from @GwydionS on how playwrights can Tweet effectively. Be sure to check out the comments section! http://www.suilebhan.com/2013/04/29/seven-steps-to-success-for-playwrights-on-twitter/ …"],
            "expected": "Positive"
        },
        "test14": {
            "args": ["Melbourne Ports profile features very interesting maps. Very distinct voting patterns in different parts of the seat http://bit.ly/11WeGzA "],
            "expected": "Positive"
        },
        "test15": {
            "args": ["@bryce Does that mean a caddy will take my bike up the steepest blocks?"],
            "expected": "Neutral"
        },
        "test16": {
            "args": ["Bitcoin gambling in a Minecraft world http://bitvegas.net/  #bitcoin"],
            "expected": "Neutral"
        },
        "test17": {
            "args": ["“It is at the moment o f a craft’s disappearance that its cultural value suddenly becomes plain to see.”Sign Painters http://j.mp/10201RC "],
            "expected": "Neutral"
        },
        "test18": {
            "args": ["Subdee on Phonogram and the magic of pop: http://hoodedutilitarian.com/2013/04/phonogram-2-the-breakfast-club/ …"],
            "expected": "Neutral"
        },
        "test19": {
            "args": ["FOOL1: \"haha $COMMUNTY is $STEREOTYPE, so I will troll it with $PARODY\""],
            "expected": "Neutral"
        },
        "test20": {
            "args": ["FOOL2: omg did you read $PARODY ?$COMMUNITY is so like $STEREOTYPE !"],
            "expected": "Neutral"
        },
        "test21": {
            "args": ["Gene Simmons and KISS: Channeling One’s Inner Superhero http://fb.me/1LMosVWC5 "],
            "expected": "Positive"
        },
        "test22": {
            "args": ["Every time Microsoft Outlook tells me I'm over my email limit I check to see if my acoustic coupler is secure."],
            "expected": "Positive"
        },
        "test23": {
            "args": ["I’m tired and don’t feel like doing things. Going to bed early. I’ll triage my horrorshow of an inbox tomorrow night."],
            "expected": "Neutral"
        },
        "test24": {
            "args": ["We are looking for an experienced ruby developer to join our awesome team. More here: http://ar.gy/478E "],
            "expected": "Positive"
        },
        "test25": {
            "args": [".@mshocked seeks redemption for her anti-gay rants by dropping into a small local FM station. http://bit.ly/Yl0eE3"],
            "expected": "Negative"
        },
        "test26": {
            "args": ["I hate this hotel!"],
            "expected": "Negative"
        }
    }
}

